<svg xmlns="http://www.w3.org/2000/svg">

    <symbol id="bell" viewBox="0 0 448 512">
        <path d="M439.39 362.29c-19.32-20.76-55.47-51.99-55.47-154.29 0-77.7-54.48-139.9-127.94-155.16V32c0-17.67-14.32-32-31.98-32s-31.98 14.33-31.98 32v20.84C118.56 68.1 64.08 130.3 64.08 208c0 102.3-36.15 133.53-55.47 154.29-6 6.45-8.66 14.16-8.61 21.71.11 16.4 12.98 32 32.1 32h383.8c19.12 0 32-15.6 32.1-32 .05-7.55-2.61-15.27-8.61-21.71zM67.53 368c21.22-27.97 44.42-74.33 44.53-159.42 0-.2-.06-.38-.06-.58 0-61.86 50.14-112 112-112s112 50.14 112 112c0 .2-.06.38-.06.58.11 85.1 23.31 131.46 44.53 159.42H67.53zM224 512c35.32 0 63.97-28.65 63.97-64H160.03c0 35.35 28.65 64 63.97 64z"></path>
    </symbol>

    <symbol id="lifebuoy" viewBox="0 0 511 511.76267">
        <path d="m256.242188 511.761719c-65.558594 0-131.113282-24.9375-181.011719-74.859375-99.796875-99.816406-99.796875-262.226563 0-362.046875 99.816406-99.816407 262.226562-99.796875 362.046875 0 99.796875 99.820312 99.796875 262.230469 0 362.046875-49.921875 49.921875-115.476563 74.859375-181.035156 74.859375zm0-479.765625c-57.363282 0-114.730469 21.824218-158.398438 65.496094-87.320312 87.335937-87.320312 229.4375 0 316.796874 87.335938 87.320313 229.4375 87.320313 316.800781 0 87.316407-87.335937 87.316407-229.4375 0-316.796874-43.671875-43.671876-101.035156-65.496094-158.402343-65.496094zm0 0"/><path d="m256.242188 383.847656c-32.789063 0-65.558594-12.480468-90.515626-37.441406-49.898437-49.898438-49.898437-131.113281 0-181.011719 49.898438-49.917969 131.113282-49.917969 181.011719 0 49.898438 49.898438 49.898438 131.113281 0 181.011719-24.9375 24.960938-57.707031 37.441406-90.496093 37.441406zm0-223.914062c-24.574219 0-49.171876 9.34375-67.882813 28.074218-37.417969 37.441407-37.417969 98.324219 0 135.765626 37.441406 37.441406 98.324219 37.441406 135.765625 0 37.417969-37.441407 37.417969-98.324219 0-135.765626-18.710938-18.730468-43.304688-28.074218-67.882812-28.074218zm0 0"/><path d="m150.941406 234.492188c-4.097656 0-8.191406-1.554688-11.308594-4.691407l-94.890624-94.890625c-6.25-6.25-6.25-16.386718 0-22.636718 6.253906-6.25 16.386718-6.25 22.636718 0l94.890625 94.890624c6.25 6.25 6.25 16.386719 0 22.636719-3.136719 3.113281-7.230469 4.691407-11.328125 4.691407zm0 0"/><path d="m388.53125 472.0625c-4.097656 0-8.191406-1.558594-11.308594-4.695312l-94.71875-94.71875c-6.25-6.25-6.25-16.382813 0-22.636719 6.25-6.25 16.382813-6.25 22.632813 0l94.722656 94.722656c6.25 6.25 6.25 16.382813 0 22.632813-3.136719 3.136718-7.234375 4.695312-11.328125 4.695312zm0 0"/><path d="m218.84375 166.589844c-4.09375 0-8.191406-1.558594-11.304688-4.695313l-94.890624-94.867187c-6.25-6.25-6.25-16.382813 0-22.636719 6.25-6.25 16.382812-6.25 22.632812 0l94.890625 94.890625c6.253906 6.253906 6.253906 16.386719 0 22.636719-3.15625 3.113281-7.25 4.671875-11.328125 4.671875zm0 0"/><path d="m456.414062 404.179688c-4.097656 0-8.191406-1.558594-11.308593-4.695313l-94.71875-94.71875c-6.25-6.25-6.25-16.382813 0-22.636719 6.25-6.25 16.382812-6.25 22.632812 0l94.722657 94.722656c6.25 6.25 6.25 16.382813 0 22.632813-3.136719 3.136719-7.234376 4.695313-11.328126 4.695313zm0 0"/><path d="m123.953125 472.0625c-4.09375 0-8.191406-1.558594-11.304687-4.695312-6.25-6.25-6.25-16.382813 0-22.632813l94.890624-94.890625c6.25-6.25 16.382813-6.25 22.632813 0 6.253906 6.25 6.253906 16.382812 0 22.632812l-94.890625 94.890626c-3.132812 3.136718-7.230469 4.695312-11.328125 4.695312zm0 0"/><path d="m361.691406 234.324219c-4.09375 0-8.191406-1.558594-11.304687-4.695313-6.25-6.25-6.25-16.382812 0-22.632812l94.71875-94.722656c6.25-6.25 16.386719-6.25 22.636719 0s6.25 16.386718 0 22.636718l-94.722657 94.71875c-3.132812 3.136719-7.230469 4.695313-11.328125 4.695313zm0 0"/><path d="m56.070312 404.179688c-4.09375 0-8.191406-1.558594-11.304687-4.695313-6.25-6.25-6.25-16.382813 0-22.632813l94.890625-94.890624c6.25-6.25 16.382812-6.25 22.632812 0 6.253907 6.25 6.253907 16.382812 0 22.632812l-94.890624 94.890625c-3.15625 3.136719-7.230469 4.695313-11.328126 4.695313zm0 0"/><path d="m293.8125 166.441406c-4.097656 0-8.195312-1.558594-11.308594-4.695312-6.25-6.25-6.25-16.382813 0-22.632813l94.71875-94.722656c6.253906-6.25 16.386719-6.25 22.636719 0 6.25 6.253906 6.25 16.386719 0 22.636719l-94.722656 94.71875c-3.132813 3.136718-7.230469 4.695312-11.324219 4.695312zm0 0"/>
    </symbol>

    <symbol id="chat" viewBox="0 0 512 512">
        <path d="M256 32C114.6 32 0 125.1 0 240c0 47.6 19.9 91.2 52.9 126.3C38 405.7 7 439.1 6.5 439.5c-6.6 7-8.4 17.2-4.6 26S14.4 480 24 480c61.5 0 110-25.7 139.1-46.3C192 442.8 223.2 448 256 448c141.4 0 256-93.1 256-208S397.4 32 256 32zm0 368c-26.7 0-53.1-4.1-78.4-12.1l-22.7-7.2-19.5 13.8c-14.3 10.1-33.9 21.4-57.5 29 7.3-12.1 14.4-25.7 19.9-40.2l10.6-28.1-20.6-21.8C69.7 314.1 48 282.2 48 240c0-88.2 93.3-160 208-160s208 71.8 208 160-93.3 160-208 160z"></path>
    </symbol>

    <symbol id="graf" viewBox="0 0 35.98 26.94">
        <rect class="cls-1" x="8.96" y="13.71" width="2" height="6.4" />
            <rect class="cls-1" x="16" y="5.04" width="2" height="15.06" />
            <rect class="cls-1" x="22.96" y="9.04" width="2" height="11.06" />
            <rect class="cls-1" x="28.92" y="3.04" width="2" height="17.06" />
            <polygon class="cls-1" points="2 24.94 2 0 0 0 0 26.94 1 26.94 2 26.94 35.98 26.94 35.98 24.94 2 24.94" />
    </symbol>

    <symbol id="puzzle" viewBox="0 0 39.5 34.64">
	    <path d="M12.49,33.69V31.33a1,1,0,0,0-.31-.69A3.65,3.65,0,0,1,11,27.9a3.74,3.74,0,0,1,7.48,0,4.64,4.64,0,0,1-1.26,2.82.92.92,0,0,0-.22.61v2.36a.94.94,0,0,0,.91,1H28.12a1,1,0,0,0,1-1V26h1a5.76,5.76,0,0,0,3.8,1.43,5.59,5.59,0,1,0,0-11.18,5.52,5.52,0,0,0-3.82,1.6h-1V11.39a1,1,0,0,0-1-.92H18.86V9.38a6,6,0,0,0,1.49-3.77,5.61,5.61,0,1,0-9.73,3.82v1H.91a.9.9,0,0,0-.91.92v22.3a.94.94,0,0,0,.91,1H11.53A1,1,0,0,0,12.49,33.69ZM1.87,32.77V12.35h9.66a1,1,0,0,0,1-1V9a.93.93,0,0,0-.31-.69A3.68,3.68,0,0,1,11,5.61a3.74,3.74,0,1,1,7.48,0,4.58,4.58,0,0,1-1.26,2.81A.92.92,0,0,0,17,9v2.35a.94.94,0,0,0,.91,1h9.3v6.44a.94.94,0,0,0,.92,1h2.34a.94.94,0,0,0,.69-.32,3.78,3.78,0,0,1,2.74-1.29,3.72,3.72,0,1,1,0,7.43,4,4,0,0,1-2.77-1.16,1,1,0,0,0-.66-.26H28.12a.91.91,0,0,0-.92.92v7.7H18.86V31.68a6.06,6.06,0,0,0,1.49-3.78,5.62,5.62,0,1,0-9.73,3.83v1Z" />
    </symbol>

	<symbol id="connect" viewBox="0 0 44.22 35.07">
	    <path class="cls-1" d="M40.05,24.17V15.06H23V10.9h4.17V0H16.82V10.9H21v4.16H3.92v9.11H0v10.9H10.33V24.17H5.92V17.06H21v7.11H16.82v10.9H27.15V24.17H23V17.06H38.05v7.11H33.89v10.9H44.22V24.17ZM18.82,2h6.33V8.9H18.82ZM8.33,33.07H2v-6.9H8.33Zm16.82,0H18.82v-6.9h6.33Zm17.07,0H35.89v-6.9h6.33Z" />
    </symbol>

    <symbol id="cub" viewBox="0 0 35.94 39.09">
	    <path class="cls-1" d="M35.94,9.55h0L17.89,0,.08,9.42H0V29.35H0l18.37,9.73L35.91,29.8h0V9.55ZM18.12,18,3.14,10,17.88,2.21,32.8,10.15ZM2,11.65l15.38,8.13V36.33L2,28.15Zm17.38,7.87,14.56-7.71V28.58L19.38,36.33Z" />
    </symbol>

	<symbol id="people" viewBox="0 0 39.96 33.77">
	    <polygon class="cls-1" points="37.96 0 2 0 0 0 0 2 0 14.04 2 14.04 2 2 37.96 2 37.96 14.04 39.96 14.04 39.96 2 39.96 0 37.96 0" />
            <path class="cls-1" d="M9.56,26.91h-8A1.44,1.44,0,0,0,.09,28.34v5.43h2V28.91H9v4.86h2V28.34A1.43,1.43,0,0,0,9.56,26.91Z" />
            <path class="cls-1" d="M5.41,25.23a4.6,4.6,0,1,0-4.6-4.59A4.6,4.6,0,0,0,5.41,25.23Zm0-7.19a2.6,2.6,0,1,1-2.6,2.6A2.59,2.59,0,0,1,5.41,18Z" />
            <path class="cls-1" d="M24,26.91H16a1.43,1.43,0,0,0-1.43,1.43v5.43h2V28.91h6.9v4.86h2V28.34A1.43,1.43,0,0,0,24,26.91Z" />
            <path class="cls-1" d="M19.84,25.23a4.6,4.6,0,1,0-4.6-4.59A4.59,4.59,0,0,0,19.84,25.23Zm0-7.19a2.6,2.6,0,1,1-2.6,2.6A2.6,2.6,0,0,1,19.84,18Z" />
            <path class="cls-1" d="M38.52,26.91h-8a1.43,1.43,0,0,0-1.43,1.43v5.43h2V28.91H38v4.86h2V28.34A1.43,1.43,0,0,0,38.52,26.91Z" />
            <path class="cls-1" d="M34.36,25.23a4.6,4.6,0,1,0-4.59-4.59A4.59,4.59,0,0,0,34.36,25.23Zm0-7.19a2.6,2.6,0,1,1-2.6,2.6A2.59,2.59,0,0,1,34.36,18Z" />
    </symbol>

    <symbol id="building" viewBox="0 0 29.94 35.58">
	    <path class="cls-1" d="M27.84,33.58V0h-26V33.58H0v2H29.94v-2ZM3.83,2h22V33.58h-9V27h-4v6.58h-9Z" />
		<rect class="cls-1" x="8.84" y="7.08" width="2.96" height="2.96" />
		<rect class="cls-1" x="17.8" y="7.08" width="2.96" height="2.96" />
		<rect class="cls-1" x="17.8" y="14" width="2.96" height="2.96" />
		<rect class="cls-1" x="8.84" y="14" width="2.96" height="2.96" />
		<rect class="cls-1" x="8.84" y="21.08" width="2.96" height="2.96" />
		<rect class="cls-1" x="17.8" y="21.08" width="2.96" height="2.96" />
    </symbol>

    <symbol id="eye" viewBox="0 0 576 512">
	    <path d="M288 144a110.94 110.94 0 0 0-31.24 5 55.4 55.4 0 0 1 7.24 27 56 56 0 0 1-56 56 55.4 55.4 0 0 1-27-7.24A111.71 111.71 0 1 0 288 144zm284.52 97.4C518.29 135.59 410.93 64 288 64S57.68 135.64 3.48 241.41a32.35 32.35 0 0 0 0 29.19C57.71 376.41 165.07 448 288 448s230.32-71.64 284.52-177.41a32.35 32.35 0 0 0 0-29.19zM288 400c-98.65 0-189.09-55-237.93-144C98.91 167 189.34 112 288 112s189.09 55 237.93 144C477.1 345 386.66 400 288 400z"></path>
    </symbol>

    <symbol id="folder" viewBox="0 0 39.84 27.19">
        <path class="cls-1" d="M39.1,13.19l.74-2H32.93V5H18.86l-5-5V0H0V27.19H34l.64-2h0l4.44-12ZM13,2l5,5,0,0H30.93v4.19H8.66l-.23.4h0L2,22.72V2ZM32.53,25.19H2.88l6.93-12H37.06Z" />
    </symbol>

    <symbol id="card" viewBox="0 0 39.93 30.96">
        <rect class="cls-1" x="25" y="12.97" width="8.03" height="2" />
            <rect class="cls-1" x="25" y="17.97" width="8.03" height="2" />
            <rect class="cls-1" x="25" y="21.97" width="8.03" height="2" />
            <path class="cls-1" d="M39.93,3.24,37,0V0H2.88V0L0,3.24V27.71l2.88,3.22v0H37v0l2.89-3.23ZM9.28,26h8.39l1.47,3H7.81Zm9.66-2v0H8L5.59,29H3.79L2,27V9H37.91V27l-1.78,2H21.37ZM2,7V4L3.79,2H36.13l1.78,2V7Z" />
            <path class="cls-1" d="M13.34,11.43a5.27,5.27,0,1,0,5.27,5.27A5.27,5.27,0,0,0,13.34,11.43Zm0,8.25a3,3,0,1,1,3-3A3,3,0,0,1,13.34,19.68Z" />
    </symbol>

    <symbol id="home" viewBox="0 0 30.25 32.44">
	    <path class="cls-1" d="M30.25,14.6l-2-2V5.46H26v5.09L16.09,1l-.93-1,0,0,0,0-.93,1L0,14.6l1.5,1.56L2,15.72V32.44H13.12V22.38h4V32.44H28.21V15.64l.53.52ZM26,30.44H19.29V20.38H11V30.44H4.12V13.64L15.12,3,26,13.56Z" />
    </symbol>

    <symbol id="settings" viewBox="0 0 35.21 35.48">
	    <path d="M22,0c0,1.63,0,3.26,0,4.89a.38.38,0,0,0,.29.42,13.15,13.15,0,0,1,3.74,2.15l.2.15L30.76,5l4.45,7.7-2.69,1.56c-.54.31-1.09.61-1.62.94a.44.44,0,0,0-.16.34,12.88,12.88,0,0,1,0,4.38c0,.21.05.28.21.37l4,2.3.28.17-4.44,7.7-4.51-2.6a13.81,13.81,0,0,1-4,2.36.44.44,0,0,0-.18.34c0,1.5,0,3,0,4.51v.39H13.17v-.36c0-1.51,0-3,0-4.54a.44.44,0,0,0-.18-.34,13.81,13.81,0,0,1-4-2.36l-4.51,2.6L0,22.78l1.57-.91c.87-.51,1.73-1,2.61-1.5a.46.46,0,0,0,.28-.57,12.17,12.17,0,0,1,0-4.17.36.36,0,0,0-.21-.46c-1.31-.74-2.6-1.5-3.9-2.25L0,12.72,4.45,5,9,7.62a13.26,13.26,0,0,1,3.25-2l.38-.17c.58-.23.58-.23.58-.83V0ZM15.38,33.25h4.44V28.72c.15-.06.29-.12.43-.16a13.06,13.06,0,0,0,5.12-2.87c.6-.57.62-.55,1.34-.13l3.23,1.86,2.2-3.82c-1.26-.73-2.48-1.44-3.7-2.13a.32.32,0,0,1-.19-.41,12.6,12.6,0,0,0,.17-5.76c-.09-.37-.28-.83-.14-1.1s.62-.42,1-.62l2.9-1.68-2.2-3.82L26.57,10c-.58.33-.59.33-1.09-.12a12.48,12.48,0,0,0-4-2.54l-1.65-.58V2.24H15.38v.4c0,1.28,0,2.56,0,3.84a.37.37,0,0,1-.29.42c-.78.28-1.57.56-2.32.89a12.77,12.77,0,0,0-3.32,2.36.38.38,0,0,1-.54,0l-3.41-2L5.26,8.1,3.07,11.89l.26.17c1.14.66,2.27,1.32,3.42,2a.34.34,0,0,1,.2.43c-.16,1-.33,2.05-.42,3.08A13.65,13.65,0,0,0,7,21.07a.31.31,0,0,1-.18.38L3.57,23.3l-.51.3,2.21,3.82,3.35-1.94c.6-.34.61-.36,1.12.11a12.26,12.26,0,0,0,4.89,2.85c.25.08.5.18.75.27Z" />
        <path d="M17.47,11.31a6.6,6.6,0,1,1-.15,13.2,6.6,6.6,0,0,1,.15-13.2Zm0,11a4.39,4.39,0,1,0-4.36-4.38A4.39,4.39,0,0,0,17.42,22.29Z" />
    </symbol>

    <symbol id="shop" viewBox="0 0 39.08 36.04">
	    <path class="cls-1" d="M37.44,22.25l1.64-18H10.74L10.56,2h0l-.08-2H0V2H8.55L8.9,6.25h0l1.86,23,1.23,0a3.85,3.85,0,1,0,4.77,0H30.28a3.85,3.85,0,1,0,4.73,0h.74V26.92H12.58l-.38-4.67Zm-4.8,12.12a2.18,2.18,0,1,1,2.18-2.18A2.19,2.19,0,0,1,32.64,34.37ZM36.73,6.3l-1.14,14H12l-1.14-14ZM14.39,34.37a2.18,2.18,0,1,1,2.18-2.18A2.19,2.19,0,0,1,14.39,34.37Z" />
    </symbol>

    <symbol id="truck" viewBox="0 0 44.19 32.27">
        <path class="cls-1" d="M44.19,24.08H42.31V15.83h0L34.1,7H29.19V0H0V26.08H6.19a4,4,0,0,0-.6,2.09,4.1,4.1,0,1,0,8.19,0,4,4,0,0,0-.59-2.09H30.75a4,4,0,0,0-.59,2.09,4.09,4.09,0,1,0,8.18,0,4,4,0,0,0-.59-2.09h6.44Zm-15-6.53H40.31v6.53H29.19Zm4-8.52,6.09,6.52H29.19V9ZM2,2H27.19V24.08H2ZM12,28.17a2.32,2.32,0,1,1-3.29-2.09h1.95A2.31,2.31,0,0,1,12,28.17Zm24.56,0a2.31,2.31,0,1,1-3.28-2.09h1.94A2.31,2.31,0,0,1,36.56,28.17Z" />
    </symbol>

	<symbol id="trucktruck" viewBox="0 0 44.21 35.69">
        <path class="cls-1" d="M44.21,29h-36V0H0V2H6.25V31h5.58a3.1,3.1,0,1,0,5.73,1.63A3,3,0,0,0,17.08,31H32.42a2.73,2.73,0,0,0-.54,1.63,2.79,2.79,0,1,0,5-1.63h7.29Zm-9.54,5.2a1.58,1.58,0,1,1,1.57-1.57A1.57,1.57,0,0,1,34.67,34.16ZM16.21,32.59A1.75,1.75,0,1,1,13.83,31h1.26A1.75,1.75,0,0,1,16.21,32.59Z" />
            <path class="cls-1" d="M42.25,23.9v-11h-4v-9H13.19v20H42.25Zm-6-11h-7v-7h7.05Zm-21.05-7h12v16h-12Zm14,16v-7H40.25v7Z" />
    </symbol>

	<symbol id="war" viewBox="0 0 44 38.73">
        <path class="cls-1" d="M24,26.69v-9H7v20H37v-11H24Zm-2-7v7H9v-7Zm-13,16v-7H22v7Zm26.06,0H24v-7H35Z" />
            <polygon class="cls-1" points="44 12.71 22.03 0.02 22.02 0.02 22.01 0 0 12.71 0.01 12.73 0 12.73 0 38.73 2 38.73 2 13.86 22 2.32 42 13.86 42 38.73 44 38.73 44 12.73 43.99 12.73 44 12.71" />
    </symbol>

    <symbol id="search" viewBox="0 0 56.966 56.966">
        <path fill="#777" d="M55.146,51.887L41.588,37.786c3.486-4.144,5.396-9.358,5.396-14.786c0-12.682-10.318-23-23-23s-23,10.318-23,23
        s10.318,23,23,23c4.761,0,9.298-1.436,13.177-4.162l13.661,14.208c0.571,0.593,1.339,0.92,2.162,0.92
        c0.779,0,1.518-0.297,2.079-0.837C56.255,54.982,56.293,53.08,55.146,51.887z M23.984,6c9.374,0,17,7.626,17,17s-7.626,17-17,17
        s-17-7.626-17-17S14.61,6,23.984,6z"/>
    </symbol>

    <symbol id="arrow" viewBox="0 0 284.929 284.929">
        <path  d="M282.082,76.511l-14.274-14.273c-1.902-1.906-4.093-2.856-6.57-2.856c-2.471,0-4.661,0.95-6.563,2.856L142.466,174.441
		L30.262,62.241c-1.903-1.906-4.093-2.856-6.567-2.856c-2.475,0-4.665,0.95-6.567,2.856L2.856,76.515C0.95,78.417,0,80.607,0,83.082
		c0,2.473,0.953,4.663,2.856,6.565l133.043,133.046c1.902,1.903,4.093,2.854,6.567,2.854s4.661-0.951,6.562-2.854L282.082,89.647
		c1.902-1.903,2.847-4.093,2.847-6.565C284.929,80.607,283.984,78.417,282.082,76.511z"/>
    </symbol>

	<symbol id="close" viewBox="0 0 357 357">
        <polygon points="357,35.7 321.3,0 178.5,142.8 35.7,0 0,35.7 142.8,178.5 0,321.3 35.7,357 178.5,214.2 321.3,357 357,321.3 
			214.2,178.5"/>
    </symbol>

    <symbol id="plus" viewBox="0 0 150 155">
        <rect opacity="0.2" y="71" width="150" height="20" fill="black"/>
        <rect opacity="0.2" x="66" y="137" width="20" height="18" fill="black"/>
        <rect y="66" width="150" height="18"/>
        <rect x="66" y="150" width="150" height="18" transform="rotate(-90 66 150)"/>
    </symbol>

    <symbol id="minus" viewBox="0 0 150 23">
        <rect opacity="0.2" y="5" width="150" height="20" fill="black"/>
        <rect width="150" height="18"/>
    </symbol>

    <symbol id="equal" viewBox="0 0 150 84">
        <rect opacity="0.2" y="4" width="150" height="20" fill="black"/>
        <rect width="150" height="18"/>
        <rect opacity="0.2" y="66" width="150" height="20" fill="black"/>
        <rect y="62" width="150" height="18"/>
    </symbol>

    <symbol id="equal-part2" viewBox="0 0 156 77">
        <path d="M0 58H156V76H0V58Z"/>
    </symbol>

    <symbol id="reset" viewBox="0 0 51.976 51.976">
        <path d="M44.373,7.603c-10.137-10.137-26.632-10.138-36.77,0c-10.138,10.138-10.137,26.632,0,36.77s26.632,10.138,36.77,0
		C54.51,34.235,54.51,17.74,44.373,7.603z M36.241,36.241c-0.781,0.781-2.047,0.781-2.828,0l-7.425-7.425l-7.778,7.778
		c-0.781,0.781-2.047,0.781-2.828,0c-0.781-0.781-0.781-2.047,0-2.828l7.778-7.778l-7.425-7.425c-0.781-0.781-0.781-2.048,0-2.828
		c0.781-0.781,2.047-0.781,2.828,0l7.425,7.425l7.071-7.071c0.781-0.781,2.047-0.781,2.828,0c0.781,0.781,0.781,2.047,0,2.828
		l-7.071,7.071l7.425,7.425C37.022,34.194,37.022,35.46,36.241,36.241z"/>
    </symbol>

    <symbol id="cart2" viewBox="0 0 475.084 475.085">
        <path d="M365.446,401.998c0,10.092,3.579,18.702,10.711,25.834c7.132,7.139,15.749,10.711,25.845,10.711
			c10.081,0,18.698-3.572,25.83-10.711c7.139-7.132,10.711-15.742,10.711-25.834s-3.568-18.702-10.711-25.841
			c-7.132-7.132-15.749-10.704-25.83-10.704c-10.096,0-18.713,3.572-25.845,10.704C369.025,383.296,365.446,391.906,365.446,401.998
			z"/>
		<path d="M469.658,78.51c-3.618-3.617-7.898-5.426-12.848-5.426H113.918c-0.193-1.331-0.621-3.756-1.287-7.277
			c-0.666-3.523-1.188-6.329-1.569-8.425c-0.383-2.087-1.093-4.611-2.142-7.561c-1.047-2.952-2.284-5.286-3.711-6.995
			c-1.425-1.718-3.328-3.189-5.708-4.43c-2.378-1.233-5.092-1.853-8.136-1.853H18.276c-4.952,0-9.234,1.812-12.85,5.424
			C1.809,45.583,0,49.868,0,54.816s1.809,9.231,5.426,12.847c3.619,3.617,7.902,5.424,12.85,5.424h58.237l50.532,234.976
			c-0.378,0.76-2.329,4.373-5.852,10.848c-3.521,6.475-6.328,12.135-8.42,16.988c-2.093,4.859-3.14,8.616-3.14,11.279
			c0,4.948,1.809,9.232,5.424,12.854c3.621,3.606,7.902,5.421,12.851,5.421h18.272h255.815h18.261c4.948,0,9.232-1.814,12.847-5.421
			c3.62-3.621,5.427-7.905,5.427-12.854c0-4.949-1.807-9.233-5.427-12.847c-3.614-3.614-7.898-5.428-12.847-5.428h-262.66
			c4.57-9.138,6.854-15.222,6.854-18.268c0-1.909-0.238-4.004-0.715-6.283s-1.047-4.805-1.713-7.569
			c-0.667-2.752-1.093-4.799-1.283-6.133l298.077-34.831c4.753-0.575,8.658-2.614,11.703-6.14c3.046-3.518,4.565-7.562,4.565-12.133
			V91.363C475.082,86.415,473.278,82.132,469.658,78.51z"/>
		<path d="M109.632,401.998c0,10.092,3.567,18.702,10.706,25.834c7.141,7.139,15.75,10.711,25.841,10.711
			c10.085,0,18.699-3.572,25.835-10.711c7.139-7.132,10.71-15.742,10.71-25.834s-3.568-18.702-10.71-25.841
			c-7.137-7.132-15.75-10.704-25.835-10.704c-10.09,0-18.704,3.572-25.841,10.704C113.203,383.296,109.632,391.906,109.632,401.998z
			"/>
    </symbol>

    <symbol id="plus" viewBox="0 0 533.333 533.333">
        <path d="M516.667,200H333.333V16.667C333.333,7.462,325.871,0,316.667,0h-100C207.462,0,200,7.462,200,16.667V200H16.667
		C7.462,200,0,207.462,0,216.667v100c0,9.204,7.462,16.666,16.667,16.666H200v183.334c0,9.204,7.462,16.666,16.667,16.666h100
		c9.204,0,16.667-7.462,16.667-16.666V333.333h183.333c9.204,0,16.667-7.462,16.667-16.666v-100
		C533.333,207.462,525.871,200,516.667,200z"/>
    </symbol>

    <symbol id="correct-symbol" viewBox="0 0 442.533 442.533">
        <path d="M434.539,98.499l-38.828-38.828c-5.324-5.328-11.799-7.993-19.41-7.993c-7.618,0-14.093,2.665-19.417,7.993L169.59,247.248
		l-83.939-84.225c-5.33-5.33-11.801-7.992-19.412-7.992c-7.616,0-14.087,2.662-19.417,7.992L7.994,201.852
		C2.664,207.181,0,213.654,0,221.269c0,7.609,2.664,14.088,7.994,19.416l103.351,103.349l38.831,38.828
		c5.327,5.332,11.8,7.994,19.414,7.994c7.611,0,14.084-2.669,19.414-7.994l38.83-38.828L434.539,137.33
		c5.325-5.33,7.994-11.802,7.994-19.417C442.537,110.302,439.864,103.829,434.539,98.499z"/>
    </symbol>

    <symbol id="graph" viewBox="0 0 201 201">
        <path d="M0.111136 200.341L99.0673 90.7638L147.757 200.06L0.111136 200.341Z" />
        <path d="M52.4741 200.341L151.43 90.7638L200.12 200.06L52.4741 200.341Z" />
        <path d="M0 0H52V200H0V0Z" />
    </symbol>

    <symbol id="man" viewBox="0 0 53.545 53.545">
        <circle cx="26.686" cy="4.507" r="4.507"/>
		<path d="M28.256,11.163c-1.123-0.228-2.344-0.218-3.447,0.042c-7.493,0.878-9.926,9.551-9.239,16.164
        c0.298,2.859,4.805,2.889,4.504,0c-0.25-2.41-0.143-6.047,1.138-8.632c0,3.142,0,6.284,0,9.425c0,0.111,0.011,0.215,0.016,0.322
        c-0.003,0.051-0.015,0.094-0.015,0.146c0,7.479-0.013,14.955-0.322,22.428c-0.137,3.322,5.014,3.309,5.15,0
        c0.242-5.857,0.303-11.717,0.317-17.578c0.244,0.016,0.488,0.016,0.732,0.002c0.015,5.861,0.074,11.721,0.314,17.576
        c0.137,3.309,5.288,3.322,5.15,0c-0.309-7.473-0.32-14.949-0.32-22.428c0-0.232-0.031-0.443-0.078-0.646
        c-0.007-3.247-0.131-6.497-0.093-9.742c1.534,2.597,1.674,6.558,1.408,9.125c-0.302,2.887,4.206,2.858,4.504,0
        C38.678,20.617,36.128,11.719,28.256,11.163z"/>
    </symbol>

</svg>


